{
  "swagger" : "2.0",
  "info" : {
    "title" : "naward2020",
    "description" : "naward2020-api",
    "version" : "1.0.0",
    "contact" : { }
  },
  "basePath" : "/",
  "tags" : [ {
    "name" : "admin",
    "description" : ""
  }, {
    "name" : "Misc",
    "description" : ""
  } ],
  "schemes" : [ "http" ],
  "consumes" : [ "application/json" ],
  "produces" : [ "application/json" ],
  "paths" : {
    "/admin/dashboard" : {
      "get" : {
        "tags" : [ "admin" ],
        "summary" : "/admin/dashboard",
        "description" : "",
        "operationId" : "/admin/dashboard",
        "produces" : [ "application/json" ],
        "parameters" : [ ],
        "responses" : {
          "200" : {
            "description" : "",
            "headers" : { }
          }
        },
        "deprecated" : false
      }
    },
    "/admin/terms" : {
      "get" : {
        "tags" : [ "admin" ],
        "summary" : "/admin/terms",
        "description" : "",
        "operationId" : "/admin/terms",
        "produces" : [ "application/json" ],
        "parameters" : [ ],
        "responses" : {
          "200" : {
            "description" : "",
            "headers" : { }
          }
        },
        "deprecated" : false
      }
    },
    "/admin/terms/1" : {
      "get" : {
        "tags" : [ "admin" ],
        "summary" : "/admin/terms/1",
        "description" : "",
        "operationId" : "/admin/terms/1",
        "produces" : [ "application/json" ],
        "parameters" : [ ],
        "responses" : {
          "200" : {
            "description" : "",
            "headers" : { }
          }
        },
        "deprecated" : false
      }
    },
    "/admin/terms/update/" : {
      "post" : {
        "tags" : [ "admin" ],
        "summary" : "/admin/terms/update/",
        "description" : "",
        "operationId" : "/admin/terms/update/",
        "consumes" : [ "application/x-www-form-urlencoded" ],
        "produces" : [ "application/json" ],
        "parameters" : [ {
          "name" : "id",
          "in" : "formData",
          "description" : "",
          "required" : true,
          "type" : "integer",
          "format" : "int32"
        }, {
          "name" : "contents",
          "in" : "formData",
          "description" : "",
          "required" : true,
          "type" : "string"
        } ],
        "responses" : {
          "200" : {
            "description" : "",
            "headers" : { }
          }
        },
        "deprecated" : false
      }
    },
    "/admin/notification" : {
      "get" : {
        "tags" : [ "admin" ],
        "summary" : "/admin/notification",
        "description" : "",
        "operationId" : "/admin/notification",
        "produces" : [ "application/json" ],
        "parameters" : [ ],
        "responses" : {
          "200" : {
            "description" : "",
            "headers" : { }
          }
        },
        "deprecated" : false
      }
    },
    "/admin/notification/1" : {
      "get" : {
        "tags" : [ "admin" ],
        "summary" : "/admin/notification/(:any)",
        "description" : "",
        "operationId" : "/admin/notification/(:any)",
        "produces" : [ "application/json" ],
        "parameters" : [ ],
        "responses" : {
          "200" : {
            "description" : "",
            "headers" : { }
          }
        },
        "deprecated" : false
      }
    },
    "/admin/notification/update" : {
      "post" : {
        "tags" : [ "admin" ],
        "summary" : "/admin/notification/update",
        "description" : "",
        "operationId" : "/admin/notification/update",
        "consumes" : [ "application/x-www-form-urlencoded" ],
        "produces" : [ "application/json" ],
        "parameters" : [ {
          "name" : "n_group",
          "in" : "formData",
          "description" : "",
          "required" : true,
          "type" : "string"
        }, {
          "name" : "n_type",
          "in" : "formData",
          "description" : "",
          "required" : true,
          "type" : "string"
        }, {
          "name" : "n_mail",
          "in" : "formData",
          "description" : "",
          "required" : true,
          "type" : "integer",
          "format" : "int32"
        }, {
          "name" : "n_sms",
          "in" : "formData",
          "description" : "",
          "required" : true,
          "type" : "integer",
          "format" : "int32"
        } ],
        "responses" : {
          "200" : {
            "description" : "",
            "headers" : { }
          }
        },
        "deprecated" : false
      }
    },
    "/admin/notification/contents/update" : {
      "post" : {
        "tags" : [ "admin" ],
        "summary" : "/admin/notification/contents/update",
        "description" : "",
        "operationId" : "/admin/notification/contents/update",
        "consumes" : [ "application/x-www-form-urlencoded" ],
        "produces" : [ "application/json" ],
        "parameters" : [ {
          "name" : "n_id",
          "in" : "formData",
          "description" : "",
          "required" : true,
          "type" : "integer",
          "format" : "int32"
        }, {
          "name" : "n_mail_subject",
          "in" : "formData",
          "description" : "",
          "required" : true,
          "type" : "string"
        }, {
          "name" : "n_mail_contents",
          "in" : "formData",
          "description" : "",
          "required" : true,
          "type" : "string"
        }, {
          "name" : "n_sms_subject",
          "in" : "formData",
          "description" : "",
          "required" : true,
          "type" : "string"
        }, {
          "name" : "n_sms_contents",
          "in" : "formData",
          "description" : "",
          "required" : true,
          "type" : "string"
        } ],
        "responses" : {
          "200" : {
            "description" : "",
            "headers" : { }
          }
        },
        "deprecated" : false
      }
    },
    "/admin/user" : {
      "get" : {
        "tags" : [ "admin" ],
        "summary" : "/admin/user",
        "description" : "",
        "operationId" : "/admin/user",
        "produces" : [ "application/json" ],
        "parameters" : [ ],
        "responses" : {
          "200" : {
            "description" : "",
            "headers" : { }
          }
        },
        "deprecated" : false
      }
    },
    "/admin/user/1" : {
      "get" : {
        "tags" : [ "admin" ],
        "summary" : "/admin/user/(:any)",
        "description" : "",
        "operationId" : "/admin/user/(:any)",
        "produces" : [ "application/json" ],
        "parameters" : [ ],
        "responses" : {
          "200" : {
            "description" : "",
            "headers" : { }
          }
        },
        "deprecated" : false
      }
    },
    "/admin/user/create" : {
      "post" : {
        "tags" : [ "admin" ],
        "summary" : "/admin/user/create",
        "description" : "",
        "operationId" : "/admin/user/create",
        "consumes" : [ "application/x-www-form-urlencoded" ],
        "produces" : [ "application/json" ],
        "parameters" : [ {
          "name" : "u_id",
          "in" : "formData",
          "description" : "",
          "required" : true,
          "type" : "string"
        }, {
          "name" : "u_password",
          "in" : "formData",
          "description" : "",
          "required" : true,
          "type" : "string"
        }, {
          "name" : "u_name",
          "in" : "formData",
          "description" : "",
          "required" : true,
          "type" : "string"
        }, {
          "name" : "u_phone1",
          "in" : "formData",
          "description" : "",
          "required" : true,
          "type" : "integer",
          "format" : "int32"
        }, {
          "name" : "u_phone2",
          "in" : "formData",
          "description" : "",
          "required" : true,
          "type" : "integer",
          "format" : "int32"
        }, {
          "name" : "u_email",
          "in" : "formData",
          "description" : "",
          "required" : true,
          "type" : "string"
        }, {
          "name" : "e_company",
          "in" : "formData",
          "description" : "",
          "required" : true,
          "type" : "string"
        }, {
          "name" : "e_name",
          "in" : "formData",
          "description" : "",
          "required" : true,
          "type" : "string"
        }, {
          "name" : "e_sector",
          "in" : "formData",
          "description" : "",
          "required" : true,
          "type" : "string"
        }, {
          "name" : "e_business",
          "in" : "formData",
          "description" : "",
          "required" : true,
          "type" : "string"
        }, {
          "name" : "e_number",
          "in" : "formData",
          "description" : "",
          "required" : true,
          "type" : "integer",
          "format" : "int64"
        }, {
          "name" : "e_email",
          "in" : "formData",
          "description" : "",
          "required" : true,
          "type" : "string"
        }, {
          "name" : "e_taxemail",
          "in" : "formData",
          "description" : "",
          "required" : true,
          "type" : "string"
        }, {
          "name" : "e_registration",
          "in" : "formData",
          "description" : "",
          "required" : true,
          "type" : "string"
        }, {
          "name" : "agree_sms",
          "in" : "formData",
          "description" : "",
          "required" : true,
          "type" : "integer",
          "format" : "int32"
        }, {
          "name" : "agree_email",
          "in" : "formData",
          "description" : "",
          "required" : true,
          "type" : "integer",
          "format" : "int32"
        } ],
        "responses" : {
          "200" : {
            "description" : "",
            "headers" : { }
          }
        },
        "deprecated" : false
      }
    },
    "/admin/user/modify" : {
      "post" : {
        "tags" : [ "admin" ],
        "summary" : "/admin/user/modify",
        "description" : "",
        "operationId" : "/admin/user/modify",
        "consumes" : [ "application/x-www-form-urlencoded" ],
        "produces" : [ "application/json" ],
        "parameters" : [ {
          "name" : "u_no",
          "in" : "formData",
          "description" : "",
          "required" : true,
          "type" : "integer",
          "format" : "int32"
        }, {
          "name" : "u_password",
          "in" : "formData",
          "description" : "",
          "required" : true,
          "type" : "string"
        }, {
          "name" : "u_name",
          "in" : "formData",
          "description" : "",
          "required" : true,
          "type" : "string"
        }, {
          "name" : "u_phone1",
          "in" : "formData",
          "description" : "",
          "required" : true,
          "type" : "integer",
          "format" : "int32"
        }, {
          "name" : "u_phone2",
          "in" : "formData",
          "description" : "",
          "required" : true,
          "type" : "integer",
          "format" : "int32"
        }, {
          "name" : "u_email",
          "in" : "formData",
          "description" : "",
          "required" : true,
          "type" : "string"
        }, {
          "name" : "agree_sms",
          "in" : "formData",
          "description" : "",
          "required" : true,
          "type" : "integer",
          "format" : "int32"
        }, {
          "name" : "agree_email",
          "in" : "formData",
          "description" : "",
          "required" : true,
          "type" : "integer",
          "format" : "int32"
        } ],
        "responses" : {
          "200" : {
            "description" : "",
            "headers" : { }
          }
        },
        "deprecated" : false
      }
    },
    "/admin/user/patch_rest" : {
      "patch" : {
        "tags" : [ "admin" ],
        "summary" : "/admin/user/patch_rest",
        "description" : "",
        "operationId" : "/admin/user/patch_rest",
        "consumes" : [ "application/x-www-form-urlencoded" ],
        "produces" : [ "application/json" ],
        "parameters" : [ {
          "name" : "u_list",
          "in" : "formData",
          "description" : "",
          "required" : true,
          "type" : "integer",
          "format" : "int32"
        } ],
        "responses" : {
          "200" : {
            "description" : "",
            "headers" : { }
          }
        },
        "deprecated" : false
      }
    },
    "/admin/user/patch_active" : {
      "patch" : {
        "tags" : [ "admin" ],
        "summary" : "/admin/user/patch_active",
        "description" : "",
        "operationId" : "/admin/user/patch_active",
        "consumes" : [ "application/x-www-form-urlencoded" ],
        "produces" : [ "application/json" ],
        "parameters" : [ {
          "name" : "u_list",
          "in" : "formData",
          "description" : "",
          "required" : true,
          "type" : "string"
        } ],
        "responses" : {
          "200" : {
            "description" : "",
            "headers" : { }
          }
        },
        "deprecated" : false
      }
    },
    "/admin/user/remove" : {
      "patch" : {
        "tags" : [ "admin" ],
        "summary" : "/admin/user/remove",
        "description" : "",
        "operationId" : "/admin/user/remove",
        "consumes" : [ "application/x-www-form-urlencoded" ],
        "produces" : [ "application/json" ],
        "parameters" : [ {
          "name" : "u_list",
          "in" : "formData",
          "description" : "",
          "required" : true,
          "type" : "string"
        } ],
        "responses" : {
          "200" : {
            "description" : "",
            "headers" : { }
          }
        },
        "deprecated" : false
      }
    },
    "/admin/admin" : {
      "get" : {
        "tags" : [ "admin" ],
        "summary" : "/admin/admin",
        "description" : "",
        "operationId" : "/admin/admin",
        "produces" : [ "application/json" ],
        "parameters" : [ ],
        "responses" : {
          "200" : {
            "description" : "",
            "headers" : { }
          }
        },
        "deprecated" : false
      }
    },
    "/admin/admin/2" : {
      "get" : {
        "tags" : [ "admin" ],
        "summary" : "/admin/admin/(:any)",
        "description" : "",
        "operationId" : "/admin/admin/(:any)",
        "produces" : [ "application/json" ],
        "parameters" : [ ],
        "responses" : {
          "200" : {
            "description" : "",
            "headers" : { }
          }
        },
        "deprecated" : false
      }
    },
    "/admin/admin/create" : {
      "post" : {
        "tags" : [ "admin" ],
        "summary" : "/admin/admin/create",
        "description" : "",
        "operationId" : "/admin/admin/create",
        "consumes" : [ "application/x-www-form-urlencoded" ],
        "produces" : [ "application/json" ],
        "parameters" : [ {
          "name" : "ua_auth",
          "in" : "formData",
          "description" : "",
          "required" : true,
          "type" : "string"
        }, {
          "name" : "is_super",
          "in" : "formData",
          "description" : "",
          "required" : true,
          "type" : "string"
        }, {
          "name" : "u_id",
          "in" : "formData",
          "description" : "",
          "required" : true,
          "type" : "string"
        }, {
          "name" : "u_name",
          "in" : "formData",
          "description" : "",
          "required" : true,
          "type" : "string"
        }, {
          "name" : "u_phone1",
          "in" : "formData",
          "description" : "",
          "required" : true,
          "type" : "integer",
          "format" : "int32"
        }, {
          "name" : "u_email",
          "in" : "formData",
          "description" : "",
          "required" : true,
          "type" : "string"
        } ],
        "responses" : {
          "200" : {
            "description" : "",
            "headers" : { }
          }
        },
        "deprecated" : false
      }
    },
    "/admin/admin/modify" : {
      "post" : {
        "tags" : [ "admin" ],
        "summary" : "/admin/admin/modify",
        "description" : "",
        "operationId" : "/admin/admin/modify",
        "consumes" : [ "application/x-www-form-urlencoded" ],
        "produces" : [ "application/json" ],
        "parameters" : [ {
          "name" : "ua_id",
          "in" : "formData",
          "description" : "",
          "required" : true,
          "type" : "integer",
          "format" : "int32"
        }, {
          "name" : "ua_auth",
          "in" : "formData",
          "description" : "",
          "required" : true,
          "type" : "string"
        }, {
          "name" : "is_super",
          "in" : "formData",
          "description" : "",
          "required" : true,
          "type" : "string"
        } ],
        "responses" : {
          "200" : {
            "description" : "",
            "headers" : { }
          }
        },
        "deprecated" : false
      }
    },
    "/admin/admin/patch" : {
      "patch" : {
        "tags" : [ "admin" ],
        "summary" : "/admin/admin/patch",
        "description" : "",
        "operationId" : "/admin/admin/patch",
        "consumes" : [ "application/x-www-form-urlencoded" ],
        "produces" : [ "application/json" ],
        "parameters" : [ {
          "name" : "ua_list",
          "in" : "formData",
          "description" : "",
          "required" : true,
          "type" : "string"
        } ],
        "responses" : {
          "200" : {
            "description" : "",
            "headers" : { }
          }
        },
        "deprecated" : false
      }
    },
    "/admin/pay" : {
      "get" : {
        "tags" : [ "admin" ],
        "summary" : "/admin/pay",
        "description" : "",
        "operationId" : "/admin/pay",
        "produces" : [ "application/json" ],
        "parameters" : [ ],
        "responses" : {
          "200" : {
            "description" : "",
            "headers" : { }
          }
        },
        "deprecated" : false
      }
    },
    "/admin/pay/N_2020200519_002" : {
      "get" : {
        "tags" : [ "admin" ],
        "summary" : "/admin/pay/(:any)",
        "description" : "",
        "operationId" : "/admin/pay/(:any)",
        "produces" : [ "application/json" ],
        "parameters" : [ ],
        "responses" : {
          "200" : {
            "description" : "",
            "headers" : { }
          }
        },
        "deprecated" : false
      }
    },
    "/admin/pay/patch" : {
      "patch" : {
        "tags" : [ "admin" ],
        "summary" : "/admin/pay/patch",
        "description" : "",
        "operationId" : "/admin/pay/patch",
        "consumes" : [ "application/x-www-form-urlencoded" ],
        "produces" : [ "application/json" ],
        "parameters" : [ {
          "name" : "pa_list",
          "in" : "formData",
          "description" : "",
          "required" : true,
          "type" : "string"
        } ],
        "responses" : {
          "200" : {
            "description" : "",
            "headers" : { }
          }
        },
        "deprecated" : false
      }
    },
    "/admin/pay/request" : {
      "patch" : {
        "tags" : [ "admin" ],
        "summary" : "/admin/pay/request",
        "description" : "",
        "operationId" : "/admin/pay/request",
        "consumes" : [ "application/x-www-form-urlencoded" ],
        "produces" : [ "application/json" ],
        "parameters" : [ {
          "name" : "pa_list",
          "in" : "formData",
          "description" : "",
          "required" : true,
          "type" : "string"
        } ],
        "responses" : {
          "200" : {
            "description" : "",
            "headers" : { }
          }
        },
        "deprecated" : false
      }
    },
    "/admin/pay/cancel" : {
      "patch" : {
        "tags" : [ "admin" ],
        "summary" : "/admin/pay/cancel",
        "description" : "",
        "operationId" : "/admin/pay/cancel",
        "consumes" : [ "application/x-www-form-urlencoded" ],
        "produces" : [ "application/json" ],
        "parameters" : [ {
          "name" : "w_list",
          "in" : "formData",
          "description" : "",
          "required" : true,
          "type" : "string"
        }, {
          "name" : "p_no",
          "in" : "formData",
          "description" : "",
          "required" : true,
          "type" : "string"
        } ],
        "responses" : {
          "200" : {
            "description" : "",
            "headers" : { }
          }
        },
        "deprecated" : false
      }
    },
    "/admin/award" : {
      "get" : {
        "tags" : [ "admin" ],
        "summary" : "/admin/award",
        "description" : "",
        "operationId" : "/admin/award",
        "produces" : [ "application/json" ],
        "parameters" : [ ],
        "responses" : {
          "200" : {
            "description" : "",
            "headers" : { }
          }
        },
        "deprecated" : false
      }
    },
    "/admin/award/2020" : {
      "get" : {
        "tags" : [ "admin" ],
        "summary" : "/admin/award/(:any)",
        "description" : "",
        "operationId" : "/admin/award/(:any)",
        "produces" : [ "application/json" ],
        "parameters" : [ ],
        "responses" : {
          "200" : {
            "description" : "",
            "headers" : { }
          }
        },
        "deprecated" : false
      }
    },
    "/admin/award/create" : {
      "put" : {
        "tags" : [ "admin" ],
        "summary" : "/admin/award/create",
        "description" : "",
        "operationId" : "/admin/award/create",
        "consumes" : [ "application/x-www-form-urlencoded" ],
        "produces" : [ "application/json" ],
        "parameters" : [ {
          "name" : "Content-Type",
          "in" : "header",
          "description" : "",
          "required" : true,
          "type" : "string"
        }, {
          "name" : "a_year",
          "in" : "header",
          "description" : "",
          "required" : true,
          "type" : "integer",
          "format" : "int32"
        }, {
          "name" : "a_desc",
          "in" : "header",
          "description" : "",
          "required" : true,
          "type" : "string"
        } ],
        "responses" : {
          "200" : {
            "description" : "",
            "headers" : { }
          }
        },
        "deprecated" : false
      }
    },
    "/admin/award/modify" : {
      "post" : {
        "tags" : [ "admin" ],
        "summary" : "/admin/award/modify",
        "description" : "",
        "operationId" : "/admin/award/modify",
        "consumes" : [ "application/x-www-form-urlencoded" ],
        "produces" : [ "application/json" ],
        "parameters" : [ {
          "name" : "a_id",
          "in" : "formData",
          "description" : "",
          "required" : true,
          "type" : "integer",
          "format" : "int32"
        }, {
          "name" : "color_backg",
          "in" : "formData",
          "description" : "",
          "required" : true,
          "type" : "string"
        }, {
          "name" : "color_text",
          "in" : "formData",
          "description" : "",
          "required" : true,
          "type" : "string"
        }, {
          "name" : "color_btbackg",
          "in" : "formData",
          "description" : "",
          "required" : true,
          "type" : "string"
        }, {
          "name" : "color_bttext",
          "in" : "formData",
          "description" : "",
          "required" : true,
          "type" : "integer",
          "format" : "int32"
        }, {
          "name" : "award_start",
          "in" : "formData",
          "description" : "",
          "required" : true,
          "type" : "string"
        }, {
          "name" : "award_end",
          "in" : "formData",
          "description" : "",
          "required" : true,
          "type" : "string"
        }, {
          "name" : "judge_start",
          "in" : "formData",
          "description" : "",
          "required" : true,
          "type" : "string"
        }, {
          "name" : "judge_end",
          "in" : "formData",
          "description" : "",
          "required" : true,
          "type" : "string"
        }, {
          "name" : "judge_status",
          "in" : "formData",
          "description" : "",
          "required" : true,
          "type" : "integer",
          "format" : "int32"
        }, {
          "name" : "reaward_start",
          "in" : "formData",
          "description" : "",
          "required" : true,
          "type" : "integer",
          "format" : "int32"
        }, {
          "name" : "reaward_end",
          "in" : "formData",
          "description" : "",
          "required" : true,
          "type" : "integer",
          "format" : "int32"
        }, {
          "name" : "win_date",
          "in" : "formData",
          "description" : "",
          "required" : true,
          "type" : "integer",
          "format" : "int32"
        }, {
          "name" : "win_status",
          "in" : "formData",
          "description" : "",
          "required" : true,
          "type" : "integer",
          "format" : "int32"
        }, {
          "name" : "work_price",
          "in" : "formData",
          "description" : "",
          "required" : true,
          "type" : "integer",
          "format" : "int32"
        }, {
          "name" : "trophy_price",
          "in" : "formData",
          "description" : "",
          "required" : true,
          "type" : "integer",
          "format" : "int32"
        }, {
          "name" : "award_route",
          "in" : "formData",
          "description" : "",
          "required" : true,
          "type" : "string"
        }, {
          "name" : "award_descript",
          "in" : "formData",
          "description" : "",
          "required" : true,
          "type" : "string"
        }, {
          "name" : "award_picture",
          "in" : "formData",
          "description" : "",
          "required" : true,
          "type" : "string"
        } ],
        "responses" : {
          "200" : {
            "description" : "",
            "headers" : { }
          }
        },
        "deprecated" : false
      }
    },
    "/admin/award/judge/create" : {
      "post" : {
        "tags" : [ "admin" ],
        "summary" : "/admin/award/judge/create",
        "description" : "",
        "operationId" : "/admin/award/judge/create",
        "consumes" : [ "application/x-www-form-urlencoded" ],
        "produces" : [ "application/json" ],
        "parameters" : [ {
          "name" : "jg_id",
          "in" : "formData",
          "description" : "",
          "required" : true,
          "type" : "integer",
          "format" : "int32"
        }, {
          "name" : "a_id",
          "in" : "formData",
          "description" : "",
          "required" : true,
          "type" : "integer",
          "format" : "int32"
        }, {
          "name" : "j_picture",
          "in" : "formData",
          "description" : "",
          "required" : true,
          "type" : "string"
        }, {
          "name" : "j_company",
          "in" : "formData",
          "description" : "",
          "required" : true,
          "type" : "string"
        }, {
          "name" : "j_access",
          "in" : "formData",
          "description" : "",
          "required" : true,
          "type" : "string"
        }, {
          "name" : "j_password",
          "in" : "formData",
          "description" : "",
          "required" : true,
          "type" : "string"
        } ],
        "responses" : {
          "200" : {
            "description" : "",
            "headers" : { }
          }
        },
        "deprecated" : false
      }
    },
    "/admin/award/judge/modify" : {
      "post" : {
        "tags" : [ "admin" ],
        "summary" : "/admin/award/judge/modify",
        "description" : "",
        "operationId" : "/admin/award/judge/modify",
        "consumes" : [ "application/x-www-form-urlencoded" ],
        "produces" : [ "application/json" ],
        "parameters" : [ {
          "name" : "j_id",
          "in" : "formData",
          "description" : "",
          "required" : true,
          "type" : "integer",
          "format" : "int32"
        }, {
          "name" : "jg_id",
          "in" : "formData",
          "description" : "",
          "required" : true,
          "type" : "integer",
          "format" : "int32"
        }, {
          "name" : "a_id",
          "in" : "formData",
          "description" : "",
          "required" : true,
          "type" : "integer",
          "format" : "int32"
        }, {
          "name" : "j_picture",
          "in" : "formData",
          "description" : "",
          "required" : true,
          "type" : "string"
        }, {
          "name" : "j_company",
          "in" : "formData",
          "description" : "",
          "required" : true,
          "type" : "string"
        }, {
          "name" : "j_access",
          "in" : "formData",
          "description" : "",
          "required" : true,
          "type" : "string"
        }, {
          "name" : "j_password",
          "in" : "formData",
          "description" : "",
          "required" : true,
          "type" : "string"
        } ],
        "responses" : {
          "200" : {
            "description" : "",
            "headers" : { }
          }
        },
        "deprecated" : false
      }
    },
    "/admin/award/1/judges" : {
      "get" : {
        "tags" : [ "admin" ],
        "summary" : "/admin/award/{award}/judges",
        "description" : "",
        "operationId" : "/admin/award/{award}/judges",
        "produces" : [ "application/json" ],
        "parameters" : [ ],
        "responses" : {
          "200" : {
            "description" : "",
            "headers" : { }
          }
        },
        "deprecated" : false
      }
    },
    "/admin/award/1/judges/1" : {
      "get" : {
        "tags" : [ "admin" ],
        "summary" : "/admin/award/{award}/judges/(:any)",
        "description" : "",
        "operationId" : "/admin/award/{award}/judges/(:any)",
        "produces" : [ "application/json" ],
        "parameters" : [ ],
        "responses" : {
          "200" : {
            "description" : "",
            "headers" : { }
          }
        },
        "deprecated" : false
      }
    },
    "/admin/award/1/category" : {
      "get" : {
        "tags" : [ "admin" ],
        "summary" : "/admin/award/{award}/category",
        "description" : "",
        "operationId" : "/admin/award/{award}/category",
        "produces" : [ "application/json" ],
        "parameters" : [ ],
        "responses" : {
          "200" : {
            "description" : "",
            "headers" : { }
          }
        },
        "deprecated" : false
      }
    },
    "/admin/award/2020/category/1" : {
      "get" : {
        "tags" : [ "admin" ],
        "summary" : "/admin/award/{award}/category/(:any)",
        "description" : "",
        "operationId" : "/admin/award/{award}/category/(:any)",
        "produces" : [ "application/json" ],
        "parameters" : [ ],
        "responses" : {
          "200" : {
            "description" : "",
            "headers" : { }
          }
        },
        "deprecated" : false
      }
    },
    "/admin/award/category/create" : {
      "post" : {
        "tags" : [ "admin" ],
        "summary" : "/admin/award/category/create",
        "description" : "",
        "operationId" : "/admin/award/category/create",
        "consumes" : [ "application/x-www-form-urlencoded" ],
        "produces" : [ "application/json" ],
        "parameters" : [ {
          "name" : "cp_id",
          "in" : "formData",
          "description" : "",
          "required" : true,
          "type" : "integer",
          "format" : "int32"
        }, {
          "name" : "a_id",
          "in" : "formData",
          "description" : "",
          "required" : true,
          "type" : "integer",
          "format" : "int32"
        }, {
          "name" : "c_title",
          "in" : "formData",
          "description" : "",
          "required" : true,
          "type" : "string"
        }, {
          "name" : "c_sector",
          "in" : "formData",
          "description" : "",
          "required" : true,
          "type" : "string"
        }, {
          "name" : "c_describe",
          "in" : "formData",
          "description" : "",
          "required" : true,
          "type" : "string"
        } ],
        "responses" : {
          "200" : {
            "description" : "",
            "headers" : { }
          }
        },
        "deprecated" : false
      }
    },
    "/admin/award/category/modify" : {
      "post" : {
        "tags" : [ "admin" ],
        "summary" : "/admin/award/category/modify",
        "description" : "",
        "operationId" : "/admin/award/category/modify",
        "consumes" : [ "application/x-www-form-urlencoded" ],
        "produces" : [ "application/json" ],
        "parameters" : [ {
          "name" : "c_title",
          "in" : "formData",
          "description" : "",
          "required" : true,
          "type" : "string"
        }, {
          "name" : "c_sector",
          "in" : "formData",
          "description" : "",
          "required" : true,
          "type" : "string"
        }, {
          "name" : "c_describe",
          "in" : "formData",
          "description" : "",
          "required" : true,
          "type" : "string"
        }, {
          "name" : "c_id",
          "in" : "formData",
          "description" : "",
          "required" : true,
          "type" : "integer",
          "format" : "int32"
        } ],
        "responses" : {
          "200" : {
            "description" : "",
            "headers" : { }
          }
        },
        "deprecated" : false
      }
    },
    "/admin/award/category/remove" : {
      "patch" : {
        "tags" : [ "admin" ],
        "summary" : "/admin/award/category/remove",
        "description" : "",
        "operationId" : "/admin/award/category/remove",
        "consumes" : [ "application/x-www-form-urlencoded" ],
        "produces" : [ "application/json" ],
        "parameters" : [ {
          "name" : "c_id",
          "in" : "formData",
          "description" : "",
          "required" : true,
          "type" : "integer",
          "format" : "int32"
        } ],
        "responses" : {
          "200" : {
            "description" : "",
            "headers" : { }
          }
        },
        "deprecated" : false
      }
    },
    "/admin/award/1/prize/" : {
      "get" : {
        "tags" : [ "admin" ],
        "summary" : "/admin/award/{award}/prize/",
        "description" : "",
        "operationId" : "/admin/award/{award}/prize/",
        "produces" : [ "application/json" ],
        "parameters" : [ ],
        "responses" : {
          "200" : {
            "description" : "",
            "headers" : { }
          }
        },
        "deprecated" : false
      }
    },
    "/admin/award/1/prize/1" : {
      "get" : {
        "tags" : [ "admin" ],
        "summary" : "/admin/award/{award}/prize/(:any)",
        "description" : "",
        "operationId" : "/admin/award/{award}/prize/(:any)",
        "produces" : [ "application/json" ],
        "parameters" : [ ],
        "responses" : {
          "200" : {
            "description" : "",
            "headers" : { }
          }
        },
        "deprecated" : false
      }
    },
    "/admin/award/prize/create" : {
      "post" : {
        "tags" : [ "admin" ],
        "summary" : "/admin/award/prize/create",
        "description" : "",
        "operationId" : "/admin/award/prize/create",
        "consumes" : [ "application/x-www-form-urlencoded" ],
        "produces" : [ "application/json" ],
        "parameters" : [ {
          "name" : "a_id",
          "in" : "formData",
          "description" : "",
          "required" : true,
          "type" : "integer",
          "format" : "int32"
        }, {
          "name" : "z_title",
          "in" : "formData",
          "description" : "",
          "required" : true,
          "type" : "string"
        }, {
          "name" : "z_picture",
          "in" : "formData",
          "description" : "",
          "required" : true,
          "type" : "string"
        } ],
        "responses" : {
          "200" : {
            "description" : "",
            "headers" : { }
          }
        },
        "deprecated" : false
      }
    },
    "/admin/award/prize/modify" : {
      "post" : {
        "tags" : [ "admin" ],
        "summary" : "/admin/award/prize/modify",
        "description" : "",
        "operationId" : "/admin/award/prize/modify",
        "consumes" : [ "application/x-www-form-urlencoded" ],
        "produces" : [ "application/json" ],
        "parameters" : [ {
          "name" : "a_id",
          "in" : "formData",
          "description" : "",
          "required" : true,
          "type" : "integer",
          "format" : "int32"
        }, {
          "name" : "z_id",
          "in" : "formData",
          "description" : "",
          "required" : true,
          "type" : "integer",
          "format" : "int32"
        }, {
          "name" : "z_title",
          "in" : "formData",
          "description" : "",
          "required" : true,
          "type" : "string"
        }, {
          "name" : "z_picture",
          "in" : "formData",
          "description" : "",
          "required" : true,
          "type" : "string"
        } ],
        "responses" : {
          "200" : {
            "description" : "",
            "headers" : { }
          }
        },
        "deprecated" : false
      }
    },
    "/admin/award/prize/remove" : {
      "patch" : {
        "tags" : [ "admin" ],
        "summary" : "/admin/award/prize/remove",
        "description" : "",
        "operationId" : "/admin/award/prize/remove",
        "consumes" : [ "application/x-www-form-urlencoded" ],
        "produces" : [ "application/json" ],
        "parameters" : [ {
          "name" : "z_id",
          "in" : "formData",
          "description" : "",
          "required" : true,
          "type" : "integer",
          "format" : "int32"
        } ],
        "responses" : {
          "200" : {
            "description" : "",
            "headers" : { }
          }
        },
        "deprecated" : false
      }
    },
    "/admin/award/1/popup" : {
      "get" : {
        "tags" : [ "admin" ],
        "summary" : "/admin/award/{award}/popup",
        "description" : "",
        "operationId" : "/admin/award/{award}/popup",
        "produces" : [ "application/json" ],
        "parameters" : [ ],
        "responses" : {
          "200" : {
            "description" : "",
            "headers" : { }
          }
        },
        "deprecated" : false
      }
    },
    "/admin/award/1/popup/3" : {
      "get" : {
        "tags" : [ "admin" ],
        "summary" : "/admin/award/{award}/popup/(:any)",
        "description" : "",
        "operationId" : "/admin/award/{award}/popup/(:any)",
        "produces" : [ "application/json" ],
        "parameters" : [ ],
        "responses" : {
          "200" : {
            "description" : "",
            "headers" : { }
          }
        },
        "deprecated" : false
      }
    },
    "/admin/award/popup/create" : {
      "post" : {
        "tags" : [ "admin" ],
        "summary" : "/admin/award/popup/create",
        "description" : "",
        "operationId" : "/admin/award/popup/create",
        "consumes" : [ "application/x-www-form-urlencoded" ],
        "produces" : [ "application/json" ],
        "parameters" : [ {
          "name" : "a_id",
          "in" : "formData",
          "description" : "",
          "required" : true,
          "type" : "integer",
          "format" : "int32"
        }, {
          "name" : "pop_title",
          "in" : "formData",
          "description" : "",
          "required" : true,
          "type" : "string"
        }, {
          "name" : "pop_start",
          "in" : "formData",
          "description" : "",
          "required" : true,
          "type" : "string"
        }, {
          "name" : "pop_end",
          "in" : "formData",
          "required" : true,
          "type" : "string"
        }, {
          "name" : "pop_width",
          "in" : "formData",
          "description" : "",
          "required" : true,
          "type" : "integer",
          "format" : "int32"
        }, {
          "name" : "pop_height",
          "in" : "formData",
          "description" : "",
          "required" : true,
          "type" : "integer",
          "format" : "int32"
        }, {
          "name" : "pop_x",
          "in" : "formData",
          "description" : "",
          "required" : true,
          "type" : "integer",
          "format" : "int32"
        }, {
          "name" : "pop_y",
          "in" : "formData",
          "description" : "",
          "required" : true,
          "type" : "integer",
          "format" : "int32"
        }, {
          "name" : "pop_picture",
          "in" : "formData",
          "description" : "",
          "required" : true,
          "type" : "string"
        } ],
        "responses" : {
          "200" : {
            "description" : "",
            "headers" : { }
          }
        },
        "deprecated" : false
      }
    },
    "/admin/award/popup/modify" : {
      "post" : {
        "tags" : [ "admin" ],
        "summary" : "/admin/award/popup/modify",
        "description" : "",
        "operationId" : "/admin/award/popup/modify",
        "consumes" : [ "application/x-www-form-urlencoded" ],
        "produces" : [ "application/json" ],
        "parameters" : [ {
          "name" : "a_id",
          "in" : "formData",
          "description" : "",
          "required" : true,
          "type" : "integer",
          "format" : "int32"
        }, {
          "name" : "pop_title",
          "in" : "formData",
          "description" : "",
          "required" : true,
          "type" : "integer",
          "format" : "int32"
        }, {
          "name" : "pop_start",
          "in" : "formData",
          "description" : "",
          "required" : true,
          "type" : "integer",
          "format" : "int32"
        }, {
          "name" : "pop_end",
          "in" : "formData",
          "description" : "",
          "required" : true,
          "type" : "integer",
          "format" : "int32"
        }, {
          "name" : "pop_width",
          "in" : "formData",
          "description" : "",
          "required" : true,
          "type" : "integer",
          "format" : "int32"
        }, {
          "name" : "pop_height",
          "in" : "formData",
          "description" : "",
          "required" : true,
          "type" : "integer",
          "format" : "int32"
        }, {
          "name" : "pop_x",
          "in" : "formData",
          "description" : "",
          "required" : true,
          "type" : "integer",
          "format" : "int32"
        }, {
          "name" : "pop_y",
          "in" : "formData",
          "description" : "",
          "required" : true,
          "type" : "integer",
          "format" : "int32"
        }, {
          "name" : "pop_picture",
          "in" : "formData",
          "description" : "",
          "required" : true,
          "type" : "integer",
          "format" : "int32"
        }, {
          "name" : "pop_id",
          "in" : "formData",
          "description" : "",
          "required" : true,
          "type" : "integer",
          "format" : "int32"
        } ],
        "responses" : {
          "200" : {
            "description" : "",
            "headers" : { }
          }
        },
        "deprecated" : false
      }
    },
    "/admin/award/popup/remove" : {
      "delete" : {
        "tags" : [ "admin" ],
        "summary" : "/admin/award/popup/delete",
        "description" : "",
        "operationId" : "/admin/award/popup/delete",
        "consumes" : [ "application/x-www-form-urlencoded" ],
        "produces" : [ "application/json" ],
        "parameters" : [ {
          "name" : "pop_id",
          "in" : "formData",
          "description" : "",
          "required" : true,
          "type" : "integer",
          "format" : "int32"
        } ],
        "responses" : {
          "200" : {
            "description" : "",
            "headers" : { }
          }
        },
        "deprecated" : false
      }
    },
    "/admin/award/1/gallery" : {
      "get" : {
        "tags" : [ "admin" ],
        "summary" : "/admin/award/{award}/gallery",
        "description" : "",
        "operationId" : "/admin/award/{award}/gallery",
        "produces" : [ "application/json" ],
        "parameters" : [ ],
        "responses" : {
          "200" : {
            "description" : "",
            "headers" : { }
          }
        },
        "deprecated" : false
      }
    },
    "/admin/award/1/gallery/4" : {
      "get" : {
        "tags" : [ "admin" ],
        "summary" : "/admin/award/{award}/gallery/(:any)",
        "description" : "",
        "operationId" : "/admin/award/{award}/gallery/(:any)",
        "produces" : [ "application/json" ],
        "parameters" : [ ],
        "responses" : {
          "200" : {
            "description" : "",
            "headers" : { }
          }
        },
        "deprecated" : false
      }
    },
    "/admin/award/gallery/create" : {
      "post" : {
        "tags" : [ "admin" ],
        "summary" : "/admin/award/gallery/create",
        "description" : "",
        "operationId" : "/admin/award/gallery/create",
        "consumes" : [ "application/x-www-form-urlencoded" ],
        "produces" : [ "application/json" ],
        "parameters" : [ {
          "name" : "a_id",
          "in" : "formData",
          "description" : "",
          "required" : true,
          "type" : "integer",
          "format" : "int32"
        }, {
          "name" : "ab_title",
          "in" : "formData",
          "description" : "",
          "required" : true,
          "type" : "string"
        }, {
          "name" : "ab_contents",
          "in" : "formData",
          "description" : "",
          "required" : true,
          "type" : "string"
        }, {
          "name" : "ab_thumb",
          "in" : "formData",
          "description" : "",
          "required" : true,
          "type" : "string"
        }, {
          "name" : "ab_resource",
          "in" : "formData",
          "description" : "",
          "required" : true,
          "type" : "string"
        } ],
        "responses" : {
          "200" : {
            "description" : "",
            "headers" : { }
          }
        },
        "deprecated" : false
      }
    },
    "/admin/award/gallery/modify" : {
      "post" : {
        "tags" : [ "admin" ],
        "summary" : "/admin/award/gallery/modify",
        "description" : "",
        "operationId" : "/admin/award/gallery/modify",
        "consumes" : [ "application/x-www-form-urlencoded" ],
        "produces" : [ "application/json" ],
        "parameters" : [ {
          "name" : "ab_id",
          "in" : "formData",
          "description" : "",
          "required" : true,
          "type" : "integer",
          "format" : "int32"
        }, {
          "name" : "ab_title",
          "in" : "formData",
          "description" : "",
          "required" : true,
          "type" : "string"
        }, {
          "name" : "ab_contents",
          "in" : "formData",
          "description" : "",
          "required" : true,
          "type" : "string"
        }, {
          "name" : "ab_thumb",
          "in" : "formData",
          "description" : "",
          "required" : true,
          "type" : "string"
        }, {
          "name" : "ab_resource",
          "in" : "formData",
          "description" : "",
          "required" : true,
          "type" : "string"
        } ],
        "responses" : {
          "200" : {
            "description" : "",
            "headers" : { }
          }
        },
        "deprecated" : false
      }
    },
    "/admin/award/gallery/remove" : {
      "patch" : {
        "tags" : [ "admin" ],
        "summary" : "/admin/award/gallery/remove",
        "description" : "",
        "operationId" : "/admin/award/gallery/remove",
        "consumes" : [ "application/x-www-form-urlencoded" ],
        "produces" : [ "application/json" ],
        "parameters" : [ {
          "name" : "ab_id",
          "in" : "formData",
          "description" : "",
          "required" : true,
          "type" : "integer",
          "format" : "int32"
        } ],
        "responses" : {
          "200" : {
            "description" : "",
            "headers" : { }
          }
        },
        "deprecated" : false
      }
    },
    "/admin/award/1/speech" : {
      "get" : {
        "tags" : [ "admin" ],
        "summary" : "/admin/award/{award}/speech",
        "description" : "",
        "operationId" : "/admin/award/{award}/speech",
        "produces" : [ "application/json" ],
        "parameters" : [ ],
        "responses" : {
          "200" : {
            "description" : "",
            "headers" : { }
          }
        },
        "deprecated" : false
      }
    },
    "/admin/award/1/speech/6" : {
      "get" : {
        "tags" : [ "admin" ],
        "summary" : "/admin/award/{award}/speech/(:any)",
        "description" : "",
        "operationId" : "/admin/award/{award}/speech/(:any)",
        "produces" : [ "application/json" ],
        "parameters" : [ ],
        "responses" : {
          "200" : {
            "description" : "",
            "headers" : { }
          }
        },
        "deprecated" : false
      }
    },
    "/admin/award/speech/create" : {
      "post" : {
        "tags" : [ "admin" ],
        "summary" : "/admin/award/speech/create",
        "description" : "",
        "operationId" : "/admin/award/speech/create",
        "consumes" : [ "application/x-www-form-urlencoded" ],
        "produces" : [ "application/json" ],
        "parameters" : [ {
          "name" : "a_id",
          "in" : "formData",
          "description" : "",
          "required" : true,
          "type" : "integer",
          "format" : "int32"
        }, {
          "name" : "ab_title",
          "in" : "formData",
          "description" : "",
          "required" : true,
          "type" : "string"
        }, {
          "name" : "ab_contents",
          "in" : "formData",
          "description" : "",
          "required" : true,
          "type" : "string"
        }, {
          "name" : "ab_thumb",
          "in" : "formData",
          "description" : "",
          "required" : true,
          "type" : "string"
        }, {
          "name" : "ab_resource",
          "in" : "formData",
          "description" : "",
          "required" : true,
          "type" : "string"
        } ],
        "responses" : {
          "200" : {
            "description" : "",
            "headers" : { }
          }
        },
        "deprecated" : false
      }
    },
    "/admin/award/speech/modify" : {
      "post" : {
        "tags" : [ "admin" ],
        "summary" : "/admin/award/speech/modify",
        "description" : "",
        "operationId" : "/admin/award/speech/modify",
        "consumes" : [ "application/x-www-form-urlencoded" ],
        "produces" : [ "application/json" ],
        "parameters" : [ {
          "name" : "ab_id",
          "in" : "formData",
          "description" : "",
          "required" : true,
          "type" : "integer",
          "format" : "int32"
        }, {
          "name" : "ab_title",
          "in" : "formData",
          "description" : "",
          "required" : true,
          "type" : "string"
        }, {
          "name" : "ab_contents",
          "in" : "formData",
          "description" : "",
          "required" : true,
          "type" : "string"
        }, {
          "name" : "ab_thumb",
          "in" : "formData",
          "description" : "",
          "required" : true,
          "type" : "string"
        }, {
          "name" : "ab_resource",
          "in" : "formData",
          "description" : "",
          "required" : true,
          "type" : "string"
        } ],
        "responses" : {
          "200" : {
            "description" : "",
            "headers" : { }
          }
        },
        "deprecated" : false
      }
    },
    "/admin/award/speech/remove" : {
      "patch" : {
        "tags" : [ "admin" ],
        "summary" : "/admin/award/speech/remove",
        "description" : "",
        "operationId" : "/admin/award/speech/remove",
        "consumes" : [ "application/x-www-form-urlencoded" ],
        "produces" : [ "application/json" ],
        "parameters" : [ {
          "name" : "ab_id",
          "in" : "formData",
          "description" : "",
          "required" : true,
          "type" : "integer",
          "format" : "int32"
        } ],
        "responses" : {
          "200" : {
            "description" : "",
            "headers" : { }
          }
        },
        "deprecated" : false
      }
    },
    "/admin/award/2020/result" : {
      "get" : {
        "tags" : [ "admin" ],
        "summary" : "/admin/award/{award}/result",
        "description" : "",
        "operationId" : "/admin/award/{award}/result",
        "produces" : [ "application/json" ],
        "parameters" : [ ],
        "responses" : {
          "200" : {
            "description" : "",
            "headers" : { }
          }
        },
        "deprecated" : false
      }
    },
    "/admin/award/1/result/1" : {
      "get" : {
        "tags" : [ "admin" ],
        "summary" : "/admin/award/{award}/result/:any",
        "description" : "",
        "operationId" : "/admin/award/{award}/result/:any",
        "produces" : [ "application/json" ],
        "parameters" : [ ],
        "responses" : {
          "200" : {
            "description" : "",
            "headers" : { }
          }
        },
        "deprecated" : false
      }
    },
    "/admin/award/result/patch" : {
      "patch" : {
        "tags" : [ "admin" ],
        "summary" : "/admin/award/result/patch",
        "description" : "",
        "operationId" : "/admin/award/result/patch",
        "consumes" : [ "application/x-www-form-urlencoded" ],
        "produces" : [ "application/json" ],
        "parameters" : [ {
          "name" : "status",
          "in" : "formData",
          "description" : "",
          "required" : true,
          "type" : "integer",
          "format" : "int32"
        }, {
          "name" : "w_id",
          "in" : "formData",
          "description" : "",
          "required" : true,
          "type" : "integer",
          "format" : "int32"
        } ],
        "responses" : {
          "200" : {
            "description" : "",
            "headers" : { }
          }
        },
        "deprecated" : false
      }
    },
    "/admin/award/result/judge" : {
      "patch" : {
        "tags" : [ "admin" ],
        "summary" : "/admin/award/result/judge",
        "description" : "",
        "operationId" : "/admin/award/result/judge",
        "consumes" : [ "application/x-www-form-urlencoded" ],
        "produces" : [ "application/json" ],
        "parameters" : [ {
          "name" : "j_list",
          "in" : "formData",
          "description" : "",
          "required" : true,
          "type" : "string"
        }, {
          "name" : "w_id",
          "in" : "formData",
          "description" : "",
          "required" : true,
          "type" : "integer",
          "format" : "int32"
        } ],
        "responses" : {
          "200" : {
            "description" : "",
            "headers" : { }
          }
        },
        "deprecated" : false
      }
    },
    "/admin/award/result/remove" : {
      "patch" : {
        "tags" : [ "admin" ],
        "summary" : "/admin/award/result/remove",
        "description" : "",
        "operationId" : "/admin/award/result/remove",
        "consumes" : [ "application/x-www-form-urlencoded" ],
        "produces" : [ "application/json" ],
        "parameters" : [ {
          "name" : "w_id",
          "in" : "formData",
          "description" : "",
          "required" : true,
          "type" : "integer",
          "format" : "int32"
        } ],
        "responses" : {
          "200" : {
            "description" : "",
            "headers" : { }
          }
        },
        "deprecated" : false
      }
    },
    "/admin/award/result/receiv" : {
      "patch" : {
        "tags" : [ "admin" ],
        "summary" : "/admin/award/result/receiv",
        "description" : "",
        "operationId" : "/admin/award/result/receiv",
        "consumes" : [ "application/x-www-form-urlencoded" ],
        "produces" : [ "application/json" ],
        "parameters" : [ {
          "name" : "w_id",
          "in" : "formData",
          "description" : "",
          "required" : true,
          "type" : "integer",
          "format" : "int32"
        }, {
          "name" : "a_id",
          "in" : "formData",
          "description" : "",
          "required" : true,
          "type" : "integer",
          "format" : "int32"
        }, {
          "name" : "z_id",
          "in" : "formData",
          "description" : "",
          "required" : true,
          "type" : "integer",
          "format" : "int32"
        } ],
        "responses" : {
          "200" : {
            "description" : "",
            "headers" : { }
          }
        },
        "deprecated" : false
      }
    },
    "/admin/award/2/receiv" : {
      "get" : {
        "tags" : [ "admin" ],
        "summary" : "/admin/award/{award}/receiv",
        "description" : "",
        "operationId" : "/admin/award/{award}/receiv",
        "produces" : [ "application/json" ],
        "parameters" : [ ],
        "responses" : {
          "200" : {
            "description" : "",
            "headers" : { }
          }
        },
        "deprecated" : false
      }
    },
    "/admin/award/1/receiv/28" : {
      "get" : {
        "tags" : [ "admin" ],
        "summary" : "/admin/award/{award}/receiv/:any",
        "description" : "",
        "operationId" : "/admin/award/{award}/receiv/:any",
        "produces" : [ "application/json" ],
        "parameters" : [ ],
        "responses" : {
          "200" : {
            "description" : "",
            "headers" : { }
          }
        },
        "deprecated" : false
      }
    },
    "/admin/award/receiv/request" : {
      "patch" : {
        "tags" : [ "admin" ],
        "summary" : "/admin/award/receiv/request",
        "description" : "",
        "operationId" : "/admin/award/receiv/request",
        "consumes" : [ "application/x-www-form-urlencoded" ],
        "produces" : [ "application/json" ],
        "parameters" : [ {
          "name" : "zr_id",
          "in" : "formData",
          "description" : "",
          "required" : true,
          "type" : "integer",
          "format" : "int32"
        } ],
        "responses" : {
          "200" : {
            "description" : "",
            "headers" : { }
          }
        },
        "deprecated" : false
      }
    },
    "/admin/award/receiv/patch" : {
      "patch" : {
        "tags" : [ "admin" ],
        "summary" : "/admin/award/receiv/patch",
        "description" : "",
        "operationId" : "/admin/award/receiv/patch",
        "consumes" : [ "application/x-www-form-urlencoded" ],
        "produces" : [ "application/json" ],
        "parameters" : [ {
          "name" : "zr_id",
          "in" : "formData",
          "description" : "",
          "required" : true,
          "type" : "integer",
          "format" : "int32"
        }, {
          "name" : "status",
          "in" : "formData",
          "description" : "",
          "required" : true,
          "type" : "integer",
          "format" : "int32"
        } ],
        "responses" : {
          "200" : {
            "description" : "",
            "headers" : { }
          }
        },
        "deprecated" : false
      }
    },
    "/terms_of_service" : {
      "get" : {
        "tags" : [ "Misc" ],
        "summary" : "/terms_of_service",
        "description" : "",
        "operationId" : "/terms_of_service",
        "produces" : [ "application/json" ],
        "parameters" : [ ],
        "responses" : {
          "200" : {
            "description" : "",
            "headers" : { }
          }
        },
        "deprecated" : false
      }
    },
    "/privacy_statement" : {
      "get" : {
        "tags" : [ "Misc" ],
        "summary" : "/privacy_statement",
        "description" : "",
        "operationId" : "/privacy_statement",
        "produces" : [ "application/json" ],
        "parameters" : [ ],
        "responses" : {
          "200" : {
            "description" : "",
            "headers" : { }
          }
        },
        "deprecated" : false
      }
    },
    "/2020/info" : {
      "get" : {
        "tags" : [ "Misc" ],
        "summary" : "/{award}/info",
        "description" : "",
        "operationId" : "/{award}/info",
        "produces" : [ "application/json" ],
        "parameters" : [ ],
        "responses" : {
          "200" : {
            "description" : "",
            "headers" : { }
          }
        },
        "deprecated" : false
      }
    },
    "/1/judge" : {
      "get" : {
        "tags" : [ "Misc" ],
        "summary" : "/{award}/judge",
        "description" : "",
        "operationId" : "/{award}/judge",
        "produces" : [ "application/json" ],
        "parameters" : [ ],
        "responses" : {
          "200" : {
            "description" : "",
            "headers" : { }
          }
        },
        "deprecated" : false
      }
    },
    "/1/category" : {
      "get" : {
        "tags" : [ "Misc" ],
        "summary" : "/{award}/category",
        "description" : "",
        "operationId" : "/{award}/category",
        "produces" : [ "application/json" ],
        "parameters" : [ ],
        "responses" : {
          "200" : {
            "description" : "",
            "headers" : { }
          }
        },
        "deprecated" : false
      }
    },
    "/1/receiv_prize" : {
      "get" : {
        "tags" : [ "Misc" ],
        "summary" : "/{award}/receiv_prize",
        "description" : "",
        "operationId" : "/{award}/receiv_prize",
        "produces" : [ "application/json" ],
        "parameters" : [ ],
        "responses" : {
          "200" : {
            "description" : "",
            "headers" : { }
          }
        },
        "deprecated" : false
      }
    },
    "/1/receiv_prize/3" : {
      "get" : {
        "tags" : [ "Misc" ],
        "summary" : "/{award}/receiv_prize/{id}",
        "description" : "",
        "operationId" : "/{award}/receiv_prize/{id}",
        "produces" : [ "application/json" ],
        "parameters" : [ ],
        "responses" : {
          "200" : {
            "description" : "",
            "headers" : { }
          }
        },
        "deprecated" : false
      }
    },
    "/1/award_gallery/" : {
      "get" : {
        "tags" : [ "Misc" ],
        "summary" : "/{award}/award_gallery",
        "description" : "",
        "operationId" : "/{award}/award_gallery",
        "produces" : [ "application/json" ],
        "parameters" : [ ],
        "responses" : {
          "200" : {
            "description" : "",
            "headers" : { }
          }
        },
        "deprecated" : false
      }
    },
    "/1/award_speech" : {
      "get" : {
        "tags" : [ "Misc" ],
        "summary" : "/{award}/award_speech",
        "description" : "",
        "operationId" : "/{award}/award_speech",
        "produces" : [ "application/json" ],
        "parameters" : [ ],
        "responses" : {
          "200" : {
            "description" : "",
            "headers" : { }
          }
        },
        "deprecated" : false
      }
    },
    "/1/award_gallery/7" : {
      "get" : {
        "tags" : [ "Misc" ],
        "summary" : "/{award}/award_gallery/(:any)",
        "description" : "",
        "operationId" : "/{award}/award_gallery/(:any)",
        "produces" : [ "application/json" ],
        "parameters" : [ ],
        "responses" : {
          "200" : {
            "description" : "",
            "headers" : { }
          }
        },
        "deprecated" : false
      }
    },
    "/upload" : {
      "post" : {
        "tags" : [ "Misc" ],
        "summary" : "upload",
        "description" : "",
        "operationId" : "upload",
        "consumes" : [ "multipart/form-data" ],
        "produces" : [ "application/json" ],
        "parameters" : [ {
          "name" : "images",
          "in" : "formData",
          "description" : "",
          "required" : true,
          "type" : "file"
        }, {
          "name" : "type",
          "in" : "formData",
          "description" : "",
          "required" : true,
          "type" : "string"
        }, {
          "name" : "index",
          "in" : "formData",
          "description" : "",
          "required" : true,
          "type" : "integer",
          "format" : "int32"
        } ],
        "responses" : {
          "200" : {
            "description" : "",
            "headers" : { }
          }
        },
        "deprecated" : false
      }
    }
  },
  "definitions" : { }
}