<svg xmlns="http://www.w3.org/2000/svg" width="143" height="60" viewBox="0 0 143 60">
    <g fill="none" fill-rule="evenodd">
        <g fill="#000">
            <g>
                <path d="M35.986 11.212c.562.545.885 1.292.897 2.075.011.783-.289 1.539-.835 2.1-.516.546-1.225.869-1.975.9l-3.087.125v-3.075c.013-1.178.726-2.234 1.813-2.688 1.087-.454 2.34-.218 3.187.6v-.037zM19.298 38.55c-3.975-.088-5.4-.413-7.25-2.3-2.007-1.938-2.101-5.122-.212-7.175.83-.857 1.937-1.389 3.125-1.5l5.562-.225v11.175l-1.225.025zm22.35 9.837l-.287-10.45-10.438.288v-11.25l3.55-.15c3.43-.136 6.675-1.597 9.05-4.075 4.21-4.324 5.011-10.928 1.956-16.133-3.056-5.204-9.213-7.724-15.04-6.155-5.828 1.57-9.887 6.84-9.916 12.875v3.6l-6.162.263h-.15c-3.763.29-7.286 1.954-9.9 4.675-5.848 6.112-5.732 15.78.262 21.75 4.738 4.837 9.6 5.337 14.6 5.45h1.25v10.787l10.413-.225v-10.85l10.812-.4z" transform="translate(-889 -40) translate(889 40)"/>
                <path fill-rule="nonzero" d="M63.023 17.912h-2.012l3.062-8.862h2.413l3.05 8.862h-2.013l-2.212-6.837-2.288 6.837zm-.125-3.487h4.738v1.462h-4.738v-1.462zm8.75 3.487l-2.5-8.862h2.038l1.475 6.15h.075l1.612-6.15h1.75l1.613 6.162h.075l1.462-6.162h2.025l-2.5 8.862h-1.825l-1.687-5.787-1.688 5.787h-1.925zm11.25 0h-1.975l3.063-8.862h2.412l3.05 8.862h-2.012l-2.213-6.837-2.325 6.837zm-.125-3.487h4.75v1.462h-4.712l-.038-1.462zm7.7 3.487V9.05h3.488c.595-.015 1.186.109 1.725.362.447.223.82.57 1.075 1 .258.47.387 1.001.375 1.538.014.529-.116 1.051-.375 1.512-.261.428-.644.768-1.1.975-.548.238-1.141.353-1.738.338h-2.3v-1.513h2.025c.307.01.613-.041.9-.15.223-.076.41-.232.525-.437.12-.222.181-.472.175-.725-.01-.261-.087-.515-.225-.738-.123-.209-.312-.372-.537-.462-.283-.11-.585-.16-.888-.15h-1.25v7.325l-1.875-.013zm4.775-4.037l2.275 4.037h-2.1l-2.15-4.037h1.975zm6.35 4.037h-3.1V9.05h3.163c.8-.016 1.59.168 2.3.537.63.35 1.147.876 1.487 1.513.357.74.533 1.554.513 2.375.02.821-.156 1.635-.513 2.375-.334.648-.857 1.18-1.5 1.525-.713.372-1.508.557-2.312.537h-.038zm-1.25-1.612h1.25c.479.013.954-.085 1.388-.288.357-.213.634-.538.787-.925.208-.511.306-1.06.288-1.612.017-.552-.08-1.101-.288-1.613-.172-.391-.471-.713-.85-.912-.439-.201-.917-.3-1.4-.288h-1.25l.075 5.638zm11.8-4.7c-.023-.324-.187-.622-.45-.813-.315-.205-.687-.305-1.062-.287-.264-.01-.528.033-.775.125-.192.07-.36.19-.488.35-.109.148-.166.328-.162.512-.009.145.026.288.1.413.076.124.178.23.3.312.132.092.27.176.412.25l.55.163.8.187c.366.08.722.196 1.063.35.306.127.59.305.837.525.232.21.42.466.55.75.329.782.25 1.676-.212 2.388-.296.414-.704.734-1.175.925-.59.229-1.218.34-1.85.325-.623-.004-1.24-.132-1.813-.375-.505-.191-.941-.531-1.25-.975-.312-.475-.473-1.032-.462-1.6h1.812c.004.27.092.531.25.75.163.196.374.346.613.437.275.104.568.155.862.15.285.005.569-.042.838-.137.21-.079.396-.213.537-.388.134-.156.205-.356.2-.562.003-.182-.059-.36-.175-.5-.142-.155-.317-.274-.512-.35-.225-.088-.5-.175-.813-.263l-.975-.237c-.649-.134-1.254-.426-1.762-.85-.439-.398-.677-.971-.65-1.563-.009-.501.145-.992.437-1.4.323-.421.755-.745 1.25-.937.55-.233 1.141-.348 1.738-.338.592-.011 1.18.104 1.725.338.458.202.851.526 1.137.937.282.408.43.893.425 1.388h-1.85zm5.988 6.25v-8.8h5.862v1.55h-3.975v2.112h3.6v1.538h-3.6v3.662l-1.887-.062zm15.262-4.438c.027.866-.162 1.726-.55 2.5-.34.647-.855 1.185-1.487 1.55-.647.355-1.375.536-2.113.525-.744.014-1.477-.171-2.125-.537-.632-.363-1.144-.901-1.475-1.55-.39-.774-.58-1.634-.55-2.5-.028-.866.16-1.726.55-2.5.335-.646.846-1.184 1.475-1.55 1.326-.7 2.912-.7 4.238 0 .632.365 1.148.903 1.487 1.55.402.797.591 1.683.55 2.575v-.063zm-1.9 0c.026-.514-.05-1.028-.225-1.512-.25-.584-.743-1.029-1.35-1.217-.606-.187-1.264-.1-1.8.242-.351.242-.625.58-.787.975-.194.502-.287 1.037-.275 1.575-.013.542.08 1.081.275 1.587.162.395.436.734.787.975.53.365 1.197.467 1.811.276.615-.19 1.108-.65 1.34-1.25.183-.509.26-1.05.224-1.588v-.063zm3.275 4.438v-8.8h3.5c.592-.016 1.178.108 1.713.362.45.219.824.567 1.075 1 .258.47.387 1.001.375 1.538.014.529-.116 1.051-.375 1.512-.261.428-.644.768-1.1.975-.548.24-1.14.354-1.738.338h-2.337v-1.513h2.037c.303.009.604-.042.888-.15.222-.076.409-.232.525-.437.12-.222.18-.472.175-.725.007-.261-.053-.52-.175-.75-.122-.206-.306-.368-.525-.463-.288-.108-.593-.16-.9-.15h-1.25v7.325l-1.888-.062zm4.788-4.038l2.2 4.038h-2.075l-2.163-3.975 2.038-.063zM68.898 25.287v8.85h-1.612l-3.85-5.575v5.575H61.56v-8.85h1.637l3.825 5.563h.075v-5.563h1.8zm1.538 8.85v-8.85h5.975v1.538h-4.1v2.112h3.75v1.538h-3.75V32.6h4.112v1.537h-5.987zm9.462 0l-2.5-8.85h2.05l1.463 6.15h.075l1.537-6.15h1.75l1.613 6.163h.075l1.562-6.163h2.038l-2.5 8.85h-1.9l-1.688-5.787h-.075l-1.675 5.787h-1.825zM64.636 50.362h-3.138v-8.85h3.163c.798-.021 1.59.16 2.3.525.632.354 1.15.884 1.487 1.525.683 1.51.683 3.24 0 4.75-.338.646-.86 1.177-1.5 1.525-.714.368-1.51.549-2.312.525zm-1.25-1.6h1.25c.484.014.964-.089 1.4-.3.38-.195.681-.518.85-.912.206-.512.304-1.061.287-1.613.019-.551-.08-1.1-.287-1.612-.172-.392-.472-.714-.85-.913-.436-.21-.916-.314-1.4-.3h-1.25v5.65zm8.85-7.25v8.85H70.36v-8.85h1.875zm7.412 2.863c-.057-.2-.145-.39-.262-.563-.107-.16-.243-.3-.4-.412-.164-.117-.345-.206-.538-.263-.215-.063-.438-.092-.662-.087-.442-.022-.88.096-1.25.337-.356.241-.633.58-.8.975-.384 1.011-.384 2.127 0 3.138.159.4.433.743.787.987.37.245.807.368 1.25.35.377.013.75-.068 1.088-.237.287-.14.526-.362.687-.638.166-.297.249-.634.238-.975h.387-2.262v-1.362h3.75v1.125c.018.698-.15 1.388-.488 2-.329.535-.8.968-1.362 1.25-.612.308-1.29.462-1.975.45-.777.042-1.55-.127-2.238-.488-.63-.37-1.139-.918-1.462-1.575-.368-.75-.548-1.577-.525-2.412-.013-.655.093-1.308.312-1.925.186-.533.484-1.019.875-1.425.348-.386.774-.693 1.25-.9.521-.207 1.077-.313 1.638-.313.476-.003.949.073 1.4.225.413.141.802.348 1.15.613.333.261.613.584.825.95.22.384.361.81.412 1.25l-1.825-.075zm5.25-2.863v8.85h-1.875v-8.85h1.875zm1.25 1.55v-1.55h7.275v1.55h-2.775v7.3h-1.875v-7.3h-2.625zm8.875 7.3h-2.025l3.063-8.85h2.412l3.05 8.85h-2.012l-2.213-6.825h-.075l-2.2 6.825zm-.125-3.475h4.738v1.463h-4.75l.012-1.463zm7.625 3.475v-8.85h1.875v7.313h3.75v1.537h-5.625z" transform="translate(-889 -40) translate(889 40)"/>
            </g>
        </g>
    </g>
</svg>
